-31065053488969505363
19729973192724260488
-861990139642931904886170981808392801552
-56140365423384303077796
-129800057454785103441
54165902956170357620955461488985584533187026026496
1874987965561176811974167990270493289807455894869
-27086572952788753888
0
1
1
-1
0
0
0
1
0
125
56
8
-10
250
1
400
200
0
-529
-7949
-1080
-100
900
1100
108
26
3
-81
-36
1690000
18000
8916100448256
2197
78364164096
8
64
82013612668728200651
-93341420162396473163
26628214776724048709
-49723385298991093821
8189018262338
-913301606561563294142893188211955625493
