15159519376
143360
151782
234218085
143360
1925929944387235853055977942584927318538101648215388195239938795566558837890625
5344924302697945116748356532948724772516400141330859599672855996281305481157219158834840338432
0
386988
0
529
2312
115615
805857048
1238
3582
329408247256242
3793415604
1140
239449932363996
338449
437
2898481922248478504
400310277640
336184038803675
422320284579
42270670
-1466013
1080219
2589045607
1726225693
466253122348257611
48
3
136543697400
75808618
4043096969256
3409091
15129
2998219536
21914624432020321
3448
238066441770
23494270
54756
24
144
8916100448256
165081
3581
5127035
5517997061173324
5111682
